%YAML 1.1
%TAG !u! tag:unity3d.com,2011:
--- !u!114 &11400000
MonoBehaviour:
  m_ObjectHideFlags: 0
  m_CorrespondingSourceObject: {fileID: 0}
  m_PrefabInstance: {fileID: 0}
  m_PrefabAsset: {fileID: 0}
  m_GameObject: {fileID: 0}
  m_Enabled: 1
  m_EditorHideFlags: 0
  m_Script: {fileID: 11500000, guid: 0bde5b51eef6a4560b2a2442b047a9a7, type: 3}
  m_Name: SwAccountData
  m_EditorClassIdentifier: 
  titlesList:
  - games: []
    id: 
    name: --- select ---
  - games:
    - adMobId: 
      bundleId: com.PixelCharm.Hexomania2048
      facebookAppId: 1433527067199203
      facebookToken: 1f82b23664814fe155a054738569e455
      gameAnalyticsKey: aaebb246e8b0173f216e60872e4b209c
      gameAnalyticsSecret: 9d5e9b1281105f5d8054b1f5019e0b8b0e5777c9
      id: f6034f41-e86a-4420-98e3-058638ca71ab
      isAppKey: 
      os: android
      platform: google_play
      storeId: com.PixelCharm.Hexomania2048
    id: be182f9f-48d7-4980-a88b-54d8fc4cb21b
    name: Hexomania 2048
  - games:
    - adMobId: 
      bundleId: 
      facebookAppId: 1044061016904442
      facebookToken: ff6604183b1a0bae3ad54890eb990149
      gameAnalyticsKey: 5de54b594f63761e98ba6ae646ab6eb6
      gameAnalyticsSecret: 5c480073ac7ce1cd251f02d4d455473708a57d97
      id: f1cac37c-4f0a-43b9-b413-c9ee15d12ec0
      isAppKey: 
      os: android
      platform: google_play
      storeId: 
    id: 9f24eeef-d345-4e9d-8a34-420288acbccc
    name: Merge Slime
  integrationGuideUrl: 
