%YAML 1.1
%TAG !u! tag:unity3d.com,2011:
--- !u!114 &11400000
MonoBehaviour:
  m_ObjectHideFlags: 0
  m_CorrespondingSourceObject: {fileID: 0}
  m_PrefabInstance: {fileID: 0}
  m_PrefabAsset: {fileID: 0}
  m_GameObject: {fileID: 0}
  m_Enabled: 1
  m_EditorHideFlags: 0
  m_Script: {fileID: 11500000, guid: 882b4af523fd1334892468bd89e70501, type: 3}
  m_Name: 11_advanced
  m_EditorClassIdentifier: 
  id: 11
  mergeToData: {fileID: 11400000, guid: b4a2d6bae6cfdf148bb0141009e2d4f9, type: 2}
  softValue: 4400
  hardValue: 16
  mergedCount: 80
  color: {r: 0.6901961, g: 0.14901961, b: 0.37647063, a: 1}
