%YAML 1.1
%TAG !u! tag:unity3d.com,2011:
--- !u!114 &11400000
MonoBehaviour:
  m_ObjectHideFlags: 0
  m_CorrespondingSourceObject: {fileID: 0}
  m_PrefabInstance: {fileID: 0}
  m_PrefabAsset: {fileID: 0}
  m_GameObject: {fileID: 0}
  m_Enabled: 1
  m_EditorHideFlags: 0
  m_Script: {fileID: 11500000, guid: 882b4af523fd1334892468bd89e70501, type: 3}
  m_Name: 4_base
  m_EditorClassIdentifier: 
  id: 4
  mergeToData: {fileID: 11400000, guid: 2a0c4a62ac1b3b046bdd3dcdff7dd140, type: 2}
  softValue: 0
  hardValue: 0
  mergedCount: 20
  color: {r: 0.8773585, g: 0.26125196, b: 0.18682297, a: 1}
