%YAML 1.1
%TAG !u! tag:unity3d.com,2011:
--- !u!114 &11400000
MonoBehaviour:
  m_ObjectHideFlags: 0
  m_CorrespondingSourceObject: {fileID: 0}
  m_PrefabInstance: {fileID: 0}
  m_PrefabAsset: {fileID: 0}
  m_GameObject: {fileID: 0}
  m_Enabled: 1
  m_EditorHideFlags: 0
  m_Script: {fileID: 11500000, guid: 882b4af523fd1334892468bd89e70501, type: 3}
  m_Name: 6_advanced
  m_EditorClassIdentifier: 
  id: 6
  mergeToData: {fileID: 11400000, guid: cf9bd046dbb99344ca2bc79bc08a3362, type: 2}
  softValue: 45
  hardValue: 0
  mergedCount: 30
  color: {r: 0.8078432, g: 0.3921569, b: 0.12941177, a: 1}
