%YAML 1.1
%TAG !u! tag:unity3d.com,2011:
--- !u!114 &11400000
MonoBehaviour:
  m_ObjectHideFlags: 0
  m_CorrespondingSourceObject: {fileID: 0}
  m_PrefabInstance: {fileID: 0}
  m_PrefabAsset: {fileID: 0}
  m_GameObject: {fileID: 0}
  m_Enabled: 1
  m_EditorHideFlags: 0
  m_Script: {fileID: 11500000, guid: 882b4af523fd1334892468bd89e70501, type: 3}
  m_Name: 8_advanced
  m_EditorClassIdentifier: 
  id: 8
  mergeToData: {fileID: 11400000, guid: 296cee738a4ed9b479b711cec5c2e4d8, type: 2}
  softValue: 210
  hardValue: 2
  mergedCount: 50
  color: {r: 1, g: 0.7019608, b: 0.3019608, a: 1}
